L03 Tidy Data
…
Solution

Code

  drinks |> 
    pivot_longer(
      cols = c("beer_servings", 
               "spirit_servings", 
               "wine_servings"),
      names_to = "type",
      values_to = "servings"
    )

# A tibble: 579 × 4
   country     total_litres_of_pure_alcohol type            servings
   <chr>                              <dbl> <chr>              <int>
 1 Afghanistan                          0   beer_servings          0
 2 Afghanistan                          0   spirit_servings        0
 3 Afghanistan                          0   wine_servings          0
 4 Albania                              4.9 beer_servings         89
 5 Albania                              4.9 spirit_servings      132
 6 Albania                              4.9 wine_servings         54
 7 Algeria                              0.7 beer_servings         25
 8 Algeria                              0.7 spirit_servings        0
 9 Algeria                              0.7 wine_servings         14
10 Andorra                             12.4 beer_servings        245
# ℹ 569 more rows
…
